id,name,model_id:id,group_id:id,perm_read,perm_write,perm_create,perm_unlink
access_emp_wage_update,access_emp_wage_update,model_emp_wage_update,base.group_hr_manager,1,1,1,1
access_emp_wage_update_dir,access_emp_wage_update_dir,model_emp_wage_update,solar_custom.hr_director_group,1,1,1,1
access_emp_wage_update_all,access_emp_wage_update_all,model_emp_wage_update,,1,1,1,1
access_hr_contract_officer,access_hr_contract_officer,hr_contract.model_hr_contract,base.group_hr_user,1,0,0,0
