id,name,model_id:id,group_id:id,perm_read,perm_write,perm_create,perm_unlink
access_sale_order_line_discount,res_sale_order_line_discount,model_sale_order_line_discount,,1,1,1,1
access_sale_order_line_discount_line,res_sale_order_line_discount_line,model_sale_order_line_discount_line,,1,1,1,1
