id,name,model_id:id,group_id:id,perm_read,perm_write,perm_create,perm_unlink
access_ticket_credit_officer,access_ticket_credit_officer,model_ticket_ticket,__export__.res_groups_86,1,1,1,0
access_ticket_credit_committee,access_ticket_credit_committee,model_ticket_ticket,__export__.res_groups_87,1,1,1,0
access_ticket_credit_manager,access_ticket_credit_manager,model_ticket_ticket,__export__.res_groups_89,1,1,1,0
access_ticket_bookkeeper,access_ticket_bookkeeper,model_ticket_ticket,__export__.res_groups_81,1,1,0,0
access_ticket_legal_officer,access_ticket_legal_officer,model_ticket_ticket,solarnow_ticket_credit.legal_officer_group,1,1,1,0
access_ticket_recovery_line,access_ticket_recovery_line,model_ticket_recovery_line,,1,1,1,1
access_ticket_cause_credit,access_ticket_cause_credit,model_ticket_cause_credit,,1,0,0,0
